HW1
…
      100 * (mean_2025 - mean_2005) / mean_2005
    } else {
      NA_real_
    },
    p_value = if (n_2005 >= 2 & n_2025 >=2){
      t.test(PM2.5[Year=='2005'],PM2.5[Year=='2025'])$p.value
    } else {
      NA_real_
    },
    significant = p_value < 0.05,
    .groups = 'drop'
  ) %>% arrange(desc(pct_change))
county_summary

# A tibble: 25 × 10
   County n_2005 n_2025 mean_2005 mean_2025 sd_2005 sd_2025 pct_change   p_value
   <chr>   <int>  <int>     <dbl>     <dbl>   <dbl>   <dbl>      <dbl>     <dbl>
 1 Schoo…    117    353      5.56      6.57    5.48    8.48       18.1 1.38e-  1
 2 Alleg…    421    359     12.7       8.95    9.41    5.98      -29.6 3.02e- 11
 3 Bay       117    370     12.4       8.54    9.34    6.30      -31.3 4.27e-  5
 4 Kent      475    796     14.3       9.81   10.5     7.07      -31.3 7.31e- 16
 5 Kalam…    228    399     14.7       9.07    8.89    7.24      -38.4 3.67e- 15
 6 Ingham    120    363     13.5       7.87    9.19    7.05      -41.9 4.61e-  9
 7 Ottawa    117    365     13.9       7.74    9.49    7.16      -44.5 9.34e- 10
 8 Macomb    120    365     14.4       7.88   11.4     7.26      -45.1 2.70e-  8
 9 Wayne    1643   3549     16.5       9.01   11.2     7.00      -45.5 9.07e-122
10 Missa…    167    351      9.86      5.32    7.71    6.23      -46.1 1.64e- 10
# ℹ 15 more rows
# ℹ 1 more variable: significant <lgl>
…
